
$€¢£¥₽₩₪฿₫₴₹
úůýž’„““”–—áčďéěíňóřšť
åæéø ’„“»«“”–—
ĉĝĥĵŝŭ’“”–—
äåö€’”»“”–—
ùûüÿ€’“”«  »–—àâæçéèêëïîôœ
äöüß€’„“«»“”–—
άέήίϊΐόύϋΰώ θωερτψυιοπασδφγηςκλζχξωβνμ
áéíöóőüúű
áæðéíóöþúý
ʃθt̬ʊʊ̈ʌʒʔᵊʳ→‖̃ᵗ̩’“”–—ˈˌːæɑðəɚɛɜɝɪɪ̈ɫŋɔɒɹɾ
ɑæɐɑ̃βɓʙɕçðd͡ʒɖɗəɚɵɘɛɜɝɛ̃ɞɠɢʛɥɦħɧʜɪɪ̈ɨʝɟʄɫɬʟɭɮɱŋɲɴɳɔœɒøɔ̃ɶɸɾʁɻɹʀɽɺʃʂθt͡ʃt͡sʈʊʊ̈ʉʌʋⱱʍɯɰχʎɣʏɤʒʐʑʔʕʢʡ|‖∅ˈˌːˑ̆͜͡‿→̥̬̩̯̈̃̊ᵊʳ˞ʰʷʲ̝̞̟̠̏̀̄́̋̂̌᷅᷄᷈̚ɡʼ̪̺̹̜̤̰̼̽ˠˤˀ̴ⁿˡʱᵗ̘̙̻́̀˩˨˦˧˥˥˩˩˥˦˥˩˨˧˦˧↓↑↘↗ǀǁǂǃʘ’“”–—
àèéìòóù€’“”«»–—
āēīōū’“”–—
 . ∕~∠½¼‰øℂ𝔼ℕℙℚℝ𝕍ℤΓΔΛΞΠΣΦΨΩ∞∘∂∫∮∯∇̅⃗̇̈̂αβγδεζηθκλμνξπρστυφχψω¬∨∧⊕∀∃↑⇐←→⇒↦⇔↔∈∉⊂⊄⊆⊈⊃∪∩∖∅−±·×÷²³√∛′″‴∏∑≠≈≝≡≤≥≪≫⟨⟩⟦⟧
åæâéèêøóòô
ǖāáǎàēéěèīíǐìōóǒòūúǔùǖǘǚǜ
ąćęłńóśźż
ãáàâçéêíõóôúü
ăâîșşțţ–—’„”«»“”
!€№@+=́ёъяшертыуиопющэасдфгчйкльжзхцвбнм;:
áéíñóúü¿¡
äåéö€’“»“”–—
✓✗☐☑☒⏎⌘⌥★☆☀☼☁☂☃❄☽°′‴″µø‰←→↑↓↔↕⇄&*#@©™−±×÷~·≠≈≤≥½¼¾⅔⅓∕²³∞Δ☺☹❤$€¢£¥  ​﻿–—‑―‒‒⁓­•◦‣№§†‡⁂¶…“”‘’«»‹›✂✆✈✉✋✍✎♿⌖☯☢⚑♀♂♥♦♠♣♩♪♫♬♭♮♯▪■●◀▶︎▲▼▫□○◁︎▷△▽
âçğıİîöşüû
ăđơưâêôáéíóúàèìòùảẻỉỏủãẽĩõũạẹịọụ

