%YAML 1.1
%TAG !u! tag:unity3d.com,2011:
--- !u!29 &1
OcclusionCullingSettings:
  m_ObjectHideFlags: 0
  serializedVersion: 2
  m_OcclusionBakeSettings:
    smallestOccluder: 5
    smallestHole: 0.25
    backfaceThreshold: 100
  m_SceneGUID: 00000000000000000000000000000000
  m_OcclusionCullingData: {fileID: 0}
--- !u!104 &2
RenderSettings:
  m_ObjectHideFlags: 0
  serializedVersion: 8
  m_Fog: 0
  m_FogColor: {r: 0.5, g: 0.5, b: 0.5, a: 1}
  m_FogMode: 3
  m_FogDensity: 0.01
  m_LinearFogStart: 0
  m_LinearFogEnd: 300
  m_AmbientSkyColor: {r: 0.212, g: 0.227, b: 0.259, a: 1}
  m_AmbientEquatorColor: {r: 0.114, g: 0.125, b: 0.133, a: 1}
  m_AmbientGroundColor: {r: 0.047, g: 0.043, b: 0.035, a: 1}
  m_AmbientIntensity: 1
  m_AmbientMode: 0
  m_SubtractiveShadowColor: {r: 0.42, g: 0.478, b: 0.627, a: 1}
  m_SkyboxMaterial: {fileID: 10304, guid: 0000000000000000f000000000000000, type: 0}
  m_HaloStrength: 0.5
  m_FlareStrength: 1
  m_FlareFadeSpeed: 3
  m_HaloTexture: {fileID: 0}
  m_SpotCookie: {fileID: 10001, guid: 0000000000000000e000000000000000, type: 0}
  m_DefaultReflectionMode: 0
  m_DefaultReflectionResolution: 128
  m_ReflectionBounces: 1
  m_ReflectionIntensity: 1
  m_CustomReflection: {fileID: 0}
  m_Sun: {fileID: 0}
  m_IndirectSpecularColor: {r: 0.37311953, g: 0.38074014, b: 0.3587274, a: 1}
--- !u!157 &4
LightmapSettings:
  m_ObjectHideFlags: 0
  serializedVersion: 11
  m_GIWorkflowMode: 0
  m_GISettings:
    serializedVersion: 2
    m_BounceScale: 1
    m_IndirectOutputScale: 1
    m_AlbedoBoost: 1
    m_TemporalCoherenceThreshold: 1
    m_EnvironmentLightingMode: 0
    m_EnableBakedLightmaps: 1
    m_EnableRealtimeLightmaps: 1
  m_LightmapEditorSettings:
    serializedVersion: 9
    m_Resolution: 2
    m_BakeResolution: 40
    m_TextureWidth: 1024
    m_TextureHeight: 1024
    m_AO: 0
    m_AOMaxDistance: 1
    m_CompAOExponent: 0
    m_CompAOExponentDirect: 0
    m_Padding: 2
    m_LightmapParameters: {fileID: 0}
    m_LightmapsBakeMode: 1
    m_TextureCompression: 1
    m_FinalGather: 0
    m_FinalGatherFiltering: 1
    m_FinalGatherRayCount: 1024
    m_ReflectionCompression: 2
    m_MixedBakeMode: 1
    m_BakeBackend: 0
    m_PVRSampling: 1
    m_PVRDirectSampleCount: 32
    m_PVRSampleCount: 500
    m_PVRBounces: 2
    m_PVRFilterTypeDirect: 0
    m_PVRFilterTypeIndirect: 0
    m_PVRFilterTypeAO: 0
    m_PVRFilteringMode: 0
    m_PVRCulling: 1
    m_PVRFilteringGaussRadiusDirect: 1
    m_PVRFilteringGaussRadiusIndirect: 5
    m_PVRFilteringGaussRadiusAO: 2
    m_PVRFilteringAtrousPositionSigmaDirect: 0.5
    m_PVRFilteringAtrousPositionSigmaIndirect: 2
    m_PVRFilteringAtrousPositionSigmaAO: 1
    m_ShowResolutionOverlay: 1
  m_LightingDataAsset: {fileID: 0}
  m_UseShadowmask: 0
--- !u!196 &5
NavMeshSettings:
  serializedVersion: 2
  m_ObjectHideFlags: 0
  m_BuildSettings:
    serializedVersion: 2
    agentTypeID: 0
    agentRadius: 0.5
    agentHeight: 2
    agentSlope: 45
    agentClimb: 0.4
    ledgeDropHeight: 0
    maxJumpAcrossDistance: 0
    minRegionArea: 2
    manualCellSize: 0
    cellSize: 0.16666667
    manualTileSize: 0
    tileSize: 256
    accuratePlacement: 0
    debug:
      m_Flags: 0
  m_NavMeshData: {fileID: 0}
--- !u!1001 &359702461
Prefab:
  m_ObjectHideFlags: 0
  serializedVersion: 2
  m_Modification:
    m_TransformParent: {fileID: 0}
    m_Modifications:
    - target: {fileID: 114869606263436160, guid: c2ad2491a18166f4194c0aff1b41122b,
        type: 2}
      propertyPath: m_fakeParams.Array.size
      value: 0
      objectReference: {fileID: 0}
    - target: {fileID: 4542271478614862, guid: c2ad2491a18166f4194c0aff1b41122b, type: 2}
      propertyPath: m_LocalPosition.x
      value: 302.20807
      objectReference: {fileID: 0}
    - target: {fileID: 4542271478614862, guid: c2ad2491a18166f4194c0aff1b41122b, type: 2}
      propertyPath: m_LocalPosition.y
      value: 436.12875
      objectReference: {fileID: 0}
    - target: {fileID: 4542271478614862, guid: c2ad2491a18166f4194c0aff1b41122b, type: 2}
      propertyPath: m_LocalPosition.z
      value: 135.36154
      objectReference: {fileID: 0}
    - target: {fileID: 4542271478614862, guid: c2ad2491a18166f4194c0aff1b41122b, type: 2}
      propertyPath: m_LocalRotation.x
      value: -0
      objectReference: {fileID: 0}
    - target: {fileID: 4542271478614862, guid: c2ad2491a18166f4194c0aff1b41122b, type: 2}
      propertyPath: m_LocalRotation.y
      value: -0
      objectReference: {fileID: 0}
    - target: {fileID: 4542271478614862, guid: c2ad2491a18166f4194c0aff1b41122b, type: 2}
      propertyPath: m_LocalRotation.z
      value: -0
      objectReference: {fileID: 0}
    - target: {fileID: 4542271478614862, guid: c2ad2491a18166f4194c0aff1b41122b, type: 2}
      propertyPath: m_LocalRotation.w
      value: 1
      objectReference: {fileID: 0}
    - target: {fileID: 4542271478614862, guid: c2ad2491a18166f4194c0aff1b41122b, type: 2}
      propertyPath: m_RootOrder
      value: 3
      objectReference: {fileID: 0}
    - target: {fileID: 114734778746820678, guid: c2ad2491a18166f4194c0aff1b41122b,
        type: 2}
      propertyPath: m_lobbyManager
      value: 
      objectReference: {fileID: 1517214952}
    - target: {fileID: 114869606263436160, guid: c2ad2491a18166f4194c0aff1b41122b,
        type: 2}
      propertyPath: m_fakeParams.Array.data[0].m_name
      value: -networkuser
      objectReference: {fileID: 0}
    - target: {fileID: 114869606263436160, guid: c2ad2491a18166f4194c0aff1b41122b,
        type: 2}
      propertyPath: m_fakeParams.Array.data[0].m_value
      value: 0
      objectReference: {fileID: 0}
    - target: {fileID: 114869606263436160, guid: c2ad2491a18166f4194c0aff1b41122b,
        type: 2}
      propertyPath: m_onArgFound.m_PersistentCalls.m_Calls.Array.data[0].m_Mode
      value: 1
      objectReference: {fileID: 0}
    - target: {fileID: 114734778746820678, guid: c2ad2491a18166f4194c0aff1b41122b,
        type: 2}
      propertyPath: m_timeBeforeAutoLaunching
      value: 20
      objectReference: {fileID: 0}
    m_RemovedComponents:
    - {fileID: 114869606263436160, guid: c2ad2491a18166f4194c0aff1b41122b, type: 2}
  m_ParentPrefab: {fileID: 100100000, guid: c2ad2491a18166f4194c0aff1b41122b, type: 2}
  m_IsPrefabParent: 0
--- !u!1 &370445943
GameObject:
  m_ObjectHideFlags: 0
  m_PrefabParentObject: {fileID: 0}
  m_PrefabInternal: {fileID: 0}
  serializedVersion: 5
  m_Component:
  - component: {fileID: 370445948}
  - component: {fileID: 370445947}
  - component: {fileID: 370445946}
  - component: {fileID: 370445945}
  - component: {fileID: 370445944}
  m_Layer: 0
  m_Name: Main Camera
  m_TagString: MainCamera
  m_Icon: {fileID: 0}
  m_NavMeshLayer: 0
  m_StaticEditorFlags: 0
  m_IsActive: 1
--- !u!81 &370445944
AudioListener:
  m_ObjectHideFlags: 0
  m_PrefabParentObject: {fileID: 0}
  m_PrefabInternal: {fileID: 0}
  m_GameObject: {fileID: 370445943}
  m_Enabled: 1
--- !u!124 &370445945
Behaviour:
  m_ObjectHideFlags: 0
  m_PrefabParentObject: {fileID: 0}
  m_PrefabInternal: {fileID: 0}
  m_GameObject: {fileID: 370445943}
  m_Enabled: 1
--- !u!92 &370445946
Behaviour:
  m_ObjectHideFlags: 0
  m_PrefabParentObject: {fileID: 0}
  m_PrefabInternal: {fileID: 0}
  m_GameObject: {fileID: 370445943}
  m_Enabled: 1
--- !u!20 &370445947
Camera:
  m_ObjectHideFlags: 0
  m_PrefabParentObject: {fileID: 0}
  m_PrefabInternal: {fileID: 0}
  m_GameObject: {fileID: 370445943}
  m_Enabled: 1
  serializedVersion: 2
  m_ClearFlags: 2
  m_BackGroundColor: {r: 1, g: 1, b: 1, a: 0.019607844}
  m_NormalizedViewPortRect:
    serializedVersion: 2
    x: 0
    y: 0
    width: 1
    height: 1
  near clip plane: 0.3
  far clip plane: 1000
  field of view: 60
  orthographic: 0
  orthographic size: 5
  m_Depth: -1
  m_CullingMask:
    serializedVersion: 2
    m_Bits: 4294967295
  m_RenderingPath: -1
  m_TargetTexture: {fileID: 0}
  m_TargetDisplay: 0
  m_TargetEye: 3
  m_HDR: 0
  m_AllowMSAA: 1
  m_AllowDynamicResolution: 0
  m_ForceIntoRT: 0
  m_OcclusionCulling: 1
  m_StereoConvergence: 10
  m_StereoSeparation: 0.022
--- !u!4 &370445948
Transform:
  m_ObjectHideFlags: 0
  m_PrefabParentObject: {fileID: 0}
  m_PrefabInternal: {fileID: 0}
  m_GameObject: {fileID: 370445943}
  m_LocalRotation: {x: 0, y: 0, z: 0, w: 1}
  m_LocalPosition: {x: 0, y: 1, z: -10}
  m_LocalScale: {x: 1, y: 1, z: 1}
  m_Children: []
  m_Father: {fileID: 0}
  m_RootOrder: 0
  m_LocalEulerAnglesHint: {x: 0, y: 0, z: 0}
--- !u!1 &1166589153
GameObject:
  m_ObjectHideFlags: 0
  m_PrefabParentObject: {fileID: 0}
  m_PrefabInternal: {fileID: 0}
  serializedVersion: 5
  m_Component:
  - component: {fileID: 1166589157}
  - component: {fileID: 1166589156}
  - component: {fileID: 1166589155}
  - component: {fileID: 1166589154}
  m_Layer: 0
  m_Name: EventSystem
  m_TagString: Untagged
  m_Icon: {fileID: 0}
  m_NavMeshLayer: 0
  m_StaticEditorFlags: 0
  m_IsActive: 1
--- !u!114 &1166589154
MonoBehaviour:
  m_ObjectHideFlags: 0
  m_PrefabParentObject: {fileID: 0}
  m_PrefabInternal: {fileID: 0}
  m_GameObject: {fileID: 1166589153}
  m_Enabled: 1
  m_EditorHideFlags: 0
  m_Script: {fileID: 1997211142, guid: f5f67c52d1564df4a8936ccd202a3bd8, type: 3}
  m_Name: 
  m_EditorClassIdentifier: 
  m_ForceModuleActive: 0
--- !u!114 &1166589155
MonoBehaviour:
  m_ObjectHideFlags: 0
  m_PrefabParentObject: {fileID: 0}
  m_PrefabInternal: {fileID: 0}
  m_GameObject: {fileID: 1166589153}
  m_Enabled: 1
  m_EditorHideFlags: 0
  m_Script: {fileID: 1077351063, guid: f5f67c52d1564df4a8936ccd202a3bd8, type: 3}
  m_Name: 
  m_EditorClassIdentifier: 
  m_HorizontalAxis: Horizontal
  m_VerticalAxis: Vertical
  m_SubmitButton: Submit
  m_CancelButton: Cancel
  m_InputActionsPerSecond: 10
  m_RepeatDelay: 0.5
  m_ForceModuleActive: 0
--- !u!114 &1166589156
MonoBehaviour:
  m_ObjectHideFlags: 0
  m_PrefabParentObject: {fileID: 0}
  m_PrefabInternal: {fileID: 0}
  m_GameObject: {fileID: 1166589153}
  m_Enabled: 1
  m_EditorHideFlags: 0
  m_Script: {fileID: -619905303, guid: f5f67c52d1564df4a8936ccd202a3bd8, type: 3}
  m_Name: 
  m_EditorClassIdentifier: 
  m_FirstSelected: {fileID: 0}
  m_sendNavigationEvents: 1
  m_DragThreshold: 5
--- !u!4 &1166589157
Transform:
  m_ObjectHideFlags: 0
  m_PrefabParentObject: {fileID: 0}
  m_PrefabInternal: {fileID: 0}
  m_GameObject: {fileID: 1166589153}
  m_LocalRotation: {x: 0, y: 0, z: 0, w: 1}
  m_LocalPosition: {x: 0, y: 0, z: 0}
  m_LocalScale: {x: 1, y: 1, z: 1}
  m_Children: []
  m_Father: {fileID: 0}
  m_RootOrder: 1
  m_LocalEulerAnglesHint: {x: 0, y: 0, z: 0}
--- !u!1001 &1517214951
Prefab:
  m_ObjectHideFlags: 0
  serializedVersion: 2
  m_Modification:
    m_TransformParent: {fileID: 0}
    m_Modifications:
    - target: {fileID: 22459552, guid: c0978251ff7b10d4fb954a4b56acd9f0, type: 2}
      propertyPath: m_LocalPosition.x
      value: 0
      objectReference: {fileID: 0}
    - target: {fileID: 22459552, guid: c0978251ff7b10d4fb954a4b56acd9f0, type: 2}
      propertyPath: m_LocalPosition.y
      value: 0
      objectReference: {fileID: 0}
    - target: {fileID: 22459552, guid: c0978251ff7b10d4fb954a4b56acd9f0, type: 2}
      propertyPath: m_LocalPosition.z
      value: 0
      objectReference: {fileID: 0}
    - target: {fileID: 22459552, guid: c0978251ff7b10d4fb954a4b56acd9f0, type: 2}
      propertyPath: m_LocalRotation.x
      value: 0
      objectReference: {fileID: 0}
    - target: {fileID: 22459552, guid: c0978251ff7b10d4fb954a4b56acd9f0, type: 2}
      propertyPath: m_LocalRotation.y
      value: 0
      objectReference: {fileID: 0}
    - target: {fileID: 22459552, guid: c0978251ff7b10d4fb954a4b56acd9f0, type: 2}
      propertyPath: m_LocalRotation.z
      value: 0
      objectReference: {fileID: 0}
    - target: {fileID: 22459552, guid: c0978251ff7b10d4fb954a4b56acd9f0, type: 2}
      propertyPath: m_LocalRotation.w
      value: 1
      objectReference: {fileID: 0}
    - target: {fileID: 22459552, guid: c0978251ff7b10d4fb954a4b56acd9f0, type: 2}
      propertyPath: m_RootOrder
      value: 2
      objectReference: {fileID: 0}
    - target: {fileID: 22459552, guid: c0978251ff7b10d4fb954a4b56acd9f0, type: 2}
      propertyPath: m_AnchoredPosition.x
      value: 0
      objectReference: {fileID: 0}
    - target: {fileID: 22459552, guid: c0978251ff7b10d4fb954a4b56acd9f0, type: 2}
      propertyPath: m_AnchoredPosition.y
      value: 0
      objectReference: {fileID: 0}
    - target: {fileID: 22459552, guid: c0978251ff7b10d4fb954a4b56acd9f0, type: 2}
      propertyPath: m_SizeDelta.x
      value: 0
      objectReference: {fileID: 0}
    - target: {fileID: 22459552, guid: c0978251ff7b10d4fb954a4b56acd9f0, type: 2}
      propertyPath: m_SizeDelta.y
      value: 0
      objectReference: {fileID: 0}
    - target: {fileID: 22459552, guid: c0978251ff7b10d4fb954a4b56acd9f0, type: 2}
      propertyPath: m_AnchorMin.x
      value: 0
      objectReference: {fileID: 0}
    - target: {fileID: 22459552, guid: c0978251ff7b10d4fb954a4b56acd9f0, type: 2}
      propertyPath: m_AnchorMin.y
      value: 0
      objectReference: {fileID: 0}
    - target: {fileID: 22459552, guid: c0978251ff7b10d4fb954a4b56acd9f0, type: 2}
      propertyPath: m_AnchorMax.x
      value: 0
      objectReference: {fileID: 0}
    - target: {fileID: 22459552, guid: c0978251ff7b10d4fb954a4b56acd9f0, type: 2}
      propertyPath: m_AnchorMax.y
      value: 0
      objectReference: {fileID: 0}
    - target: {fileID: 22459552, guid: c0978251ff7b10d4fb954a4b56acd9f0, type: 2}
      propertyPath: m_Pivot.x
      value: 0
      objectReference: {fileID: 0}
    - target: {fileID: 22459552, guid: c0978251ff7b10d4fb954a4b56acd9f0, type: 2}
      propertyPath: m_Pivot.y
      value: 0
      objectReference: {fileID: 0}
    - target: {fileID: 11465630, guid: c0978251ff7b10d4fb954a4b56acd9f0, type: 2}
      propertyPath: m_Text
      value: 
      objectReference: {fileID: 0}
    - target: {fileID: 11475086, guid: c0978251ff7b10d4fb954a4b56acd9f0, type: 2}
      propertyPath: isMatchmaking
      value: 0
      objectReference: {fileID: 0}
    - target: {fileID: 11475086, guid: c0978251ff7b10d4fb954a4b56acd9f0, type: 2}
      propertyPath: m_GamePlayerPrefab
      value: 
      objectReference: {fileID: 1612741848390978, guid: 8099c9beb20b1d3468ca21cae1f1393a,
        type: 2}
    - target: {fileID: 11475086, guid: c0978251ff7b10d4fb954a4b56acd9f0, type: 2}
      propertyPath: prematchCountdown
      value: 1
      objectReference: {fileID: 0}
    - target: {fileID: 11475086, guid: c0978251ff7b10d4fb954a4b56acd9f0, type: 2}
      propertyPath: m_MinPlayers
      value: 1
      objectReference: {fileID: 0}
    - target: {fileID: 11475086, guid: c0978251ff7b10d4fb954a4b56acd9f0, type: 2}
      propertyPath: m_OfflineScene
      value: 3b. LobbyManager
      objectReference: {fileID: 0}
    - target: {fileID: 11475086, guid: c0978251ff7b10d4fb954a4b56acd9f0, type: 2}
      propertyPath: m_LobbyScene
      value: 3b. LobbyManager
      objectReference: {fileID: 0}
    - target: {fileID: 11475086, guid: c0978251ff7b10d4fb954a4b56acd9f0, type: 2}
      propertyPath: m_PlayScene
      value: 4a. HostOnline
      objectReference: {fileID: 0}
    - target: {fileID: 11475086, guid: c0978251ff7b10d4fb954a4b56acd9f0, type: 2}
      propertyPath: m_MaxPlayers
      value: 4
      objectReference: {fileID: 0}
    - target: {fileID: 11475086, guid: c0978251ff7b10d4fb954a4b56acd9f0, type: 2}
      propertyPath: m_MaxPlayersPerConnection
      value: 1
      objectReference: {fileID: 0}
    - target: {fileID: 11402578, guid: c0978251ff7b10d4fb954a4b56acd9f0, type: 2}
      propertyPath: m_Text
      value: Net Meteoroid
      objectReference: {fileID: 0}
    - target: {fileID: 22466426, guid: c0978251ff7b10d4fb954a4b56acd9f0, type: 2}
      propertyPath: m_AnchoredPosition.x
      value: 0
      objectReference: {fileID: 0}
    m_RemovedComponents: []
  m_ParentPrefab: {fileID: 100100000, guid: c0978251ff7b10d4fb954a4b56acd9f0, type: 2}
  m_IsPrefabParent: 0
--- !u!114 &1517214952 stripped
MonoBehaviour:
  m_PrefabParentObject: {fileID: 11475086, guid: c0978251ff7b10d4fb954a4b56acd9f0,
    type: 2}
  m_PrefabInternal: {fileID: 1517214951}
  m_Script: {fileID: 11500000, guid: 38de513803c5e60498ad31fbc327b120, type: 3}
